Buffalo Weather Cleanup
…
time_series <- pre_series |>  
  as_tsibble(key = season, index = date)
time_series

## # A tsibble: 1,080 x 3 [1M]
## # Key:       season [90]
##        date snowfall season 
##       <mth> <chr>    <chr>  
##  1 1940 Jul 0        1940-41
##  2 1940 Aug 0        1940-41
##  3 1940 Sep 0        1940-41
##  4 1940 Oct T        1940-41
##  5 1940 Nov 17.5     1940-41
##  6 1940 Dec 12.1     1940-41
##  7 1941 Jan 17.3     1940-41
##  8 1941 Feb 23.1     1940-41
##  9 1941 Mar 9.3      1940-41
## 10 1941 Apr T        1940-41
## #  1,070 more rows
…
set.seed(836465)

prelim_tidied <- time_series |>
  mutate(snowfall = replace(snowfall, snowfall == "T", round(runif(1),1))) |>
  mutate(snowfall = as.double(snowfall))

prelim_tidied

## # A tsibble: 1,080 x 3 [1M]
## # Key:       season [90]
##        date snowfall season 
##       <mth>    <dbl> <chr>  
##  1 1940 Jul      0   1940-41
##  2 1940 Aug      0   1940-41
##  3 1940 Sep      0   1940-41
##  4 1940 Oct      0.4 1940-41
##  5 1940 Nov     17.5 1940-41
##  6 1940 Dec     12.1 1940-41
##  7 1941 Jan     17.3 1940-41
##  8 1941 Feb     23.1 1940-41
##  9 1941 Mar      9.3 1940-41
## 10 1941 Apr      0.4 1940-41
## #  1,070 more rows

Finally, we can see if there are any more missed values. This is the
original location the error April 1976 was found, but fixing the error
here is significantly more complicated than in earlier steps. Now we see
that the only rows missing data are those that are empty in the original
dataset, indicating they should not be considered in any analysis.

prelim_tidied |>
  filter(is.na(snowfall))

## # A tsibble: 73 x 3 [1M]
## # Key:       season [7]
##        date snowfall season 
##       <mth>    <dbl> <chr>  
##  1 2024 Jun       NA 2023-24
##  2 2024 Jul       NA 2024-25
##  3 2024 Aug       NA 2024-25
##  4 2024 Sep       NA 2024-25
##  5 2024 Oct       NA 2024-25
##  6 2024 Nov       NA 2024-25
##  7 2024 Dec       NA 2024-25
##  8 2025 Jan       NA 2024-25
##  9 2025 Feb       NA 2024-25
## 10 2025 Mar       NA 2024-25
## #  63 more rows
…
